digraph arpeggio_graph {
2182146471544 [label="Model [0]"];
2182146471544->2182146415064 [label="1"]

2182146415064 [label="Kennzeichen [0]"];
2182146415064->2182146412616 [label="1"]

2182146412616 [label="GemainsameZuordnung [0]"];
2182146412616->2182146295752 [label="1"]

2182146295752 [label=" '#' [0]"];
2182146412616->2182146412760 [label="2"]

2182146412760 [label="__asgn_plain [1]"];
2182146412760->2182146457960 [label="1"]

2182146457960 [label="UTMREF [1]"];
2182146457960->2182146459832 [label="1"]

2182146459832 [label="__asgn_plain [1]"];
2182146459832->2182146445640 [label="1"]

2182146445640 [label=" '32U' [1]"];
2182146457960->2182146459256 [label="2"]

2182146459256 [label="__asgn_plain [4]"];
2182146459256->2182146446408 [label="1"]

2182146446408 [label=" 'LE' [4]"];
2182146457960->2182146458104 [label="3"]

2182146458104 [label="__asgn_plain [6]"];
2182146458104->2182146445896 [label="1"]

2182146445896 [label=" '341' [6]"];
2182146457960->2182146461416 [label="4"]

2182146461416 [label="__asgn_plain [9]"];
2182146461416->2182146445512 [label="1"]

2182146445512 [label=" '916' [9]"];
2182146412616->2182146446792 [label="3"]

2182146446792 [label=" '.' [12]"];
2182146412616->2182146412904 [label="4"]

2182146412904 [label="__asgn_plain [13]"];
2182146412904->2182146446280 [label="1"]

2182146446280 [label=" 'WBW02' [13]"];
2182146415064->2182146414632 [label="2"]

2182146414632 [label="ReferenzKennzeichen [19]"];
2182146414632->2182146414920 [label="1"]

2182146414920 [label="FunktionaleZuordnung [19]"];
2182146414920->2182146446664 [label="1"]

2182146446664 [label=" '==' [19]"];
2182146414920->2182146413912 [label="2"]

2182146413912 [label="__asgn_plain [21]"];
2182146413912->2182146413336 [label="1"]

2182146413336 [label="System [21]"];
2182146413336->2182146458680 [label="1"]

2182146458680 [label="__asgn_plain [21]"];
2182146458680->2182146447432 [label="1"]

2182146447432 [label=" 'MDK' [21]"];
2182146413336->2182146413624 [label="2"]

2182146413624 [label="__asgn_plain [24]"];
2182146413624->2182146446536 [label="1"]

2182146446536 [label=" '13' [24]"];
2182146414920->2182146414344 [label="3"]

2182146414344 [label="__asgn_plain [27]"];
2182146414344->2182146414200 [label="1"]

2182146414200 [label="Grundfunktion [27]"];
2182146414200->2182146413768 [label="1"]

2182146413768 [label="__asgn_plain [27]"];
2182146413768->2182146445384 [label="1"]

2182146445384 [label=" 'GP' [27]"];
2182146414200->2182146414056 [label="2"]

2182146414056 [label="__asgn_plain [29]"];
2182146414056->2182146445768 [label="1"]

2182146445768 [label=" '001' [29]"];
2182146414920->2182146446024 [label="4"]

2182146446024 [label=" '.' [33]"];
2182146414920->2182146414488 [label="5"]

2182146414488 [label="__asgn_plain [34]"];
2182146414488->2182146447688 [label="1"]

2182146447688 [label=" 'AA01' [34]"];
2182146415064->2182146415352 [label="3"]

2182146415352 [label="SpezifischesKennzeichen [39]"];
2182146415352->2182146387832 [label="1"]

2182146387832 [label="DokumentenKennzeichung [39]"];
2182146387832->2182146447560 [label="1"]

2182146447560 [label=" '&' [39]"];
2182146387832->2182146414776 [label="2"]

2182146414776 [label="__asgn_plain [40]"];
2182146414776->2182146448072 [label="1"]

2182146448072 [label=" 'AAA' [40]"];
2182146387832->2182146415208 [label="3"]

2182146415208 [label="__asgn_plain [43]"];
2182146415208->2182146448200 [label="1"]

2182146448200 [label=" '001' [43]"];
2182146387832->2182146447944 [label="4"]

2182146447944 [label=" '/' [46]"];
2182146387832->2182146415496 [label="5"]

2182146415496 [label="__asgn_plain [47]"];
2182146415496->2182146448584 [label="1"]

2182146448584 [label=" '01' [47]"];
2182146471544->2182146448328 [label="2"]

2182146448328 [label="EOF [49]"];
}