
    digraph textX {
    fontname = "Bitstream Vera Sans"
    fontsize = 8
    node[
        shape=record,
        style=filled,
        fillcolor=aliceblue
    ]
    nodesep = 0.3
    edge[dir=black,arrowtail=empty]


1900103209784[ label="{Kennzeichen|}"]

1900103211672[ label="{ReferenzKennzeichen|}"]

1900103190904[ label="{SpezifischesKennzeichen|}"]

1900092895368[ label="{GemeinsameZuordnung|}"]




1900103209784 -> 1900092895368[arrowtail=diamond, dir=both]
1900103209784 -> 1900103211672[arrowtail=diamond, dir=both]
1900103209784 -> 1900103190904[arrowtail=diamond, dir=both]
}
